Wages Data of High School Dropout from the National Longitudinal Survey of Youth (NLSY79) — wages_hs_do • yowie
…
is_predWhether the mean hourly wage is a predicted value or not.

    Source

    The U.S. Bureau of Labor Statistics. (2021, January 6). National Longitudinal Survey of Youth 1979. https://www.nlsinfo.org/content/cohorts/nlsy79/get-data

    Examples

# saving the data into a new object
library(yowie)
library(tsibble)
wages_hs_do %>% key_data()

#> # A tibble: 1,188 × 2
#>       id       .rows
#>    <int> <list<int>>
#>  1     7        [17]
#>  2    31        [22]
#>  3    36        [25]
#>  4    42        [23]
#>  5    53        [14]
#>  6    84         [6]
#>  7    87        [24]
#>  8    93        [25]
#>  9   145        [23]
#> 10   146        [23]
#> # … with 1,178 more rows
…
