Wages Data from the National Longitudinal Survey of Youth (NLSY79) — wages_hs2020 • yowie
…
is_predWhether the mean hourly wage is a predicted value or not.

    Source

    The U.S. Bureau of Labor Statistics. (2021, January 6). National Longitudinal Survey of Youth 1979. https://www.nlsinfo.org/content/cohorts/nlsy79/get-data

    Examples

# show the data
wages_hs2020

#> # A tibble: 103,994 x 13
#>       id  year mean_hourly_wage age_1979 gender race  hgc   hgc_i yr_hgc
#>    <int> <int>            <dbl>    <int> <fct>  <fct> <fct> <int>  <int>
#>  1     2  1979             3.85       20 FEMALE NON-… 12TH…    12   1985
#>  2     2  1980             4.57       20 FEMALE NON-… 12TH…    12   1985
#>  3     2  1981             5.14       20 FEMALE NON-… 12TH…    12   1985
#>  4     2  1982             5.71       20 FEMALE NON-… 12TH…    12   1985
#>  5     2  1983             5.71       20 FEMALE NON-… 12TH…    12   1985
#>  6     2  1984             5.14       20 FEMALE NON-… 12TH…    12   1985
#>  7     2  1985             7.71       20 FEMALE NON-… 12TH…    12   1985
#>  8     2  1986             7.69       20 FEMALE NON-… 12TH…    12   1985
#>  9     2  1987             8.79       20 FEMALE NON-… 12TH…    12   1985
#> 10     2  1988             6.67       20 FEMALE NON-… 12TH…    12   1985
#> # … with 103,984 more rows, and 4 more variables: number_of_jobs <int>,
#> #   total_hours <int>, is_wm <lgl>, is_pred <lgl>
…
