Wages Data from the National Longitudinal Survey of Youth (NLSY79) — wages • yowie
…
is_predWhether the mean hourly wage is a predicted value or not.

    Source

    The U.S. Bureau of Labor Statistics. (2021, January 6). National Longitudinal Survey of Youth 1979. https://www.nlsinfo.org/content/cohorts/nlsy79/get-data

    Examples

# data summary
wages

#> # A tsibble: 103,994 x 13 [!]
#> # Key:       id [5,931]
#>    id     year  wage age_1979 gender race   hgc   hgc_i yr_hgc njobs hours is_wm
#>    <fct> <int> <dbl>    <int> <fct>  <fct>  <fct> <int>  <int> <int> <int> <lgl>
#>  1 2      1979  3.85       20 FEMALE NON-B… 12TH…    12   1985     1    35 FALSE
#>  2 2      1980  4.57       20 FEMALE NON-B… 12TH…    12   1985     1    NA FALSE
#>  3 2      1981  5.14       20 FEMALE NON-B… 12TH…    12   1985     1    NA FALSE
#>  4 2      1982  5.71       20 FEMALE NON-B… 12TH…    12   1985     1    35 FALSE
#>  5 2      1983  5.71       20 FEMALE NON-B… 12TH…    12   1985     1    NA FALSE
#>  6 2      1984  5.14       20 FEMALE NON-B… 12TH…    12   1985     1    NA FALSE
#>  7 2      1985  7.71       20 FEMALE NON-B… 12TH…    12   1985     1    NA FALSE
#>  8 2      1986  7.69       20 FEMALE NON-B… 12TH…    12   1985     1    NA FALSE
#>  9 2      1987  8.79       20 FEMALE NON-B… 12TH…    12   1985     1    NA FALSE
#> 10 2      1988  6.67       20 FEMALE NON-B… 12TH…    12   1985     2    NA FALSE
#> # … with 103,984 more rows, and 1 more variable: is_pred <lgl>
…
